<?xml version="1.0" encoding="UTF-8" standalone="no"?>
<!-- Created with Inkscape (http://www.inkscape.org/) -->

<svg
   xmlns:dc="http://purl.org/dc/elements/1.1/"
   xmlns:cc="http://creativecommons.org/ns#"
   xmlns:rdf="http://www.w3.org/1999/02/22-rdf-syntax-ns#"
   xmlns:svg="http://www.w3.org/2000/svg"
   xmlns="http://www.w3.org/2000/svg"
   xmlns:xlink="http://www.w3.org/1999/xlink"
   xmlns:sodipodi="http://sodipodi.sourceforge.net/DTD/sodipodi-0.dtd"
   xmlns:inkscape="http://www.inkscape.org/namespaces/inkscape"
   width="138.532mm"
   height="138.532mm"
   viewBox="0 0 138.532 138.532"
   version="1.1"
   id="svg1507"
   inkscape:version="0.92.4 (5da689c313, 2019-01-14)"
   sodipodi:docname="biggercircle.svg">
  <defs
     id="defs1501">
    <linearGradient
       inkscape:collect="always"
       xlink:href="#linearGradient821"
       id="linearGradient831"
       gradientUnits="userSpaceOnUse"
       gradientTransform="matrix(0.42916787,0,0,0.42916787,81.107686,138.39212)"
       x1="-189.32059"
       y1="208.1756"
       x2="134.13606"
       y2="208.1756" />
    <linearGradient
       inkscape:collect="always"
       id="linearGradient821">
      <stop
         style="stop-color:#ff9933;stop-opacity:1;"
         offset="0"
         id="stop817" />
      <stop
         style="stop-color:#d76f8a;stop-opacity:0.89803922"
         offset="1"
         id="stop819" />
    </linearGradient>
  </defs>
  <sodipodi:namedview
     id="base"
     pagecolor="#ffffff"
     bordercolor="#666666"
     borderopacity="1.0"
     inkscape:pageopacity="0.0"
     inkscape:pageshadow="2"
     inkscape:zoom="0.35"
     inkscape:cx="-181.42857"
     inkscape:cy="560"
     inkscape:document-units="mm"
     inkscape:current-layer="layer1"
     showgrid="false"
     inkscape:window-width="1920"
     inkscape:window-height="1038"
     inkscape:window-x="0"
     inkscape:window-y="18"
     inkscape:window-maximized="0" />
  <metadata
     id="metadata1504">
    <rdf:RDF>
      <cc:Work
         rdf:about="">
        <dc:format>image/svg+xml</dc:format>
        <dc:type
           rdf:resource="http://purl.org/dc/dcmitype/StillImage" />
        <dc:title></dc:title>
      </cc:Work>
    </rdf:RDF>
  </metadata>
  <g
     inkscape:label="Layer 1"
     inkscape:groupmode="layer"
     id="layer1"
     transform="translate(0,-158.468)">
    <circle
       style="opacity:1;fill:url(#linearGradient831);fill-opacity:1;stroke:none;stroke-width:0.28539681;stroke-miterlimit:4;stroke-dasharray:none;stroke-opacity:1"
       id="circle829"
       cx="69.265999"
       cy="227.73399"
       r="69.265907" />
  </g>
</svg>
