<?xml version="1.0" encoding="UTF-8"?>
<!-- Generator: Adobe Illustrator 15.1.0, SVG Export Plug-In . SVG Version: 6.00 Build 0)  -->
<!DOCTYPE svg PUBLIC "-//W3C//DTD SVG 1.0//EN" "http://www.w3.org/TR/2001/REC-SVG-20010904/DTD/svg10.dtd">
<svg version="1.0" id="Layer_1" xmlns="http://www.w3.org/2000/svg" xmlns:xlink="http://www.w3.org/1999/xlink" x="0px" y="0px" width="616.625px" height="138.965px" viewBox="0 0 616.625 138.965" enable-background="new 0 0 616.625 138.965" xml:space="preserve">
<path d="M84.234,37.253v9.027H64.908v72.346h-2.861l-7.12-8.328v-25.62H28.799v10.809c0,2.543-0.827,3.813-2.479,3.813  c-1.61,0-5.287-3.083-11.029-9.25c-5.744-6.167-8.614-10.288-8.614-12.364c0-1.313,0.996-1.972,2.988-1.972h9.154V46.281H0v-9.027  L84.234,37.253L84.234,37.253z M28.799,75.715h26.128V46.281H28.799V75.715z"/>
<path d="M147.489,37.253v9.027h-28.289c1.524,3.857,2.288,8.18,2.288,12.969c0,5.255-1.154,10.203-3.465,14.845  c-2.311,4.641-5.753,8.953-10.331,12.936c3.941,4.367,8.783,8.955,14.526,13.764c5.742,4.811,12.386,9.865,19.93,15.162  l-1.652,2.354c-6.654-4.578-12.778-9.123-18.373-13.638c-5.596-4.515-10.682-8.995-15.259-13.444  C97.751,82.284,93.196,75.841,93.196,71.9c0-3.899,2.606-5.849,7.819-5.849c2.5,0,5.509,0.551,9.027,1.653  c2.67-3.433,4.005-6.93,4.005-10.49c0-2.797-0.954-6.441-2.861-10.935H82.39v-9.027L147.489,37.253L147.489,37.253z"/>
<path d="M189.066,37.253v9.027h-19.263v72.346h-2.352l-7.63-8.837V46.281h-14.177v-9.027L189.066,37.253L189.066,37.253z"/>
<path d="M258.423,37.253v9.027h-30.896v22.632c6.993,0.763,12.565,3.126,16.721,7.088c4.152,3.963,6.229,8.975,6.229,15.035  c0,6.443-2.67,11.824-8.011,16.146c-5.34,4.323-11.549,6.484-18.626,6.484c-8.563,0-15.607-2.723-21.138-8.169  c-5.531-5.444-8.297-12.047-8.297-19.804c0-4.152,1.112-7.521,3.338-10.107c2.225-2.584,7.257-5.148,15.099-7.692  c2.924-0.932,4.736-1.949,5.436-3.051c0.699-1.102,1.05-2.521,1.05-4.259V46.281h-32.104v-9.027L258.423,37.253L258.423,37.253z   M226.51,71.71c-2.247,1.907-6.357,3.709-12.333,5.403c-6.4,1.824-10.543,3.9-12.429,6.23c-1.887,2.332-2.829,5.108-2.829,8.328  c0,3.773,1.472,7.217,4.418,10.331c2.945,3.115,7.108,4.673,12.492,4.673c6.865,0,13.105-1.939,18.722-5.816  c5.616-3.879,8.423-8.762,8.423-14.654c0-3.814-1.431-7.057-4.291-9.727S231.765,72.219,226.51,71.71z"/>
<path d="M300,37.253v9.027h-19.264v72.156h-2.859l-7.12-8.138V46.281H256.58v-9.027h20.47c-4.281-9.536-8.879-16.698-13.795-21.487  c-4.917-4.789-10.149-7.184-15.702-7.184c-4.619,0-8.095,1.271-10.426,3.814s-3.497,6.357-3.497,11.443  c0,4.281,0.954,8.752,2.861,13.414h-7.63c-3.475-5.254-5.213-10.785-5.213-16.592c0-6.06,1.982-11.019,5.944-14.876  C233.557,1.929,238.589,0,244.692,0c9.409,0,17.334,4.069,23.776,12.206c4.534,5.722,8.624,14.071,12.27,25.047H300z"/>
<g>
	<g>
		<path d="M405.575,57.055c-4.103,5.616-6.952,16.64-8.551,33.077c-0.601,6.015-0.256,10.875,1.033,14.583    c5.21-1.699,7.816-5.449,7.816-11.25c0-3.499-1.048-6.75-3.142-9.75c-2.692-0.9-5.135-1.398-7.329-1.5    c-20.242-0.499-33.255,3.301-39.036,11.4c-1.797,2.501-2.693,6.101-2.693,10.8c0,2.7,0.549,4.451,1.65,5.25l-9.301-6.45    c0.998,0.6,1.999,0.9,3,0.9c1.699,0,3.05-0.75,4.051-2.25c2.299-3.301,3.449-8.899,3.449-16.801c0-4.5-0.301-8.299-0.899-11.399    c-2.4-12.5-4.552-24-6.45-34.5l9.837,6.75c3.529,15.801,5.801,28.351,6.812,37.649c0.201,1.703,0.303,4,0.303,6.9    c0,13.702-2.771,20.551-8.308,20.551c-0.905,0-1.813-0.301-2.719-0.9l-9.363-6.45c-1.107-0.799-1.66-2.449-1.66-4.95    c0-4.898,0.998-8.749,3-11.55c5.898-8.399,19.05-12.351,39.453-11.851c4.6,0.102,9,1.599,13.2,4.496l9.3,6.447    c4.298,3.002,6.445,7.354,6.445,13.055c0,3.203-1,6.102-3,8.703c-2.001,2.602-4.551,3.899-7.648,3.899c-1.103,0-2.102-0.3-3-0.899    l-9.301-6.451c-3.502-2.404-5.25-7.616-5.25-15.635c0-2.104,0.05-3.707,0.149-4.812c1.399-15.834,4.299-26.911,8.7-33.228l0.3-0.3    l4.351-5.262c1.5-2.105,2.449-4.158,2.851-6.164l9.45,6.614c-0.401,1.805-1.451,3.759-3.15,5.864    C409.025,52.646,407.574,54.451,405.575,57.055z"/>
		<path d="M404.825,112.415c-1.197,0-2.3-0.331-3.277-0.983l-9.309-6.456c-3.625-2.489-5.465-7.889-5.465-16.046    c0-2.108,0.051-3.742,0.151-4.856c0.039-0.438,0.079-0.872,0.12-1.304c-8.366,0.348-15.257,1.633-20.495,3.822    c0.049,1.145,0.074,2.445,0.074,3.873c0,14.165-2.881,21.051-8.808,21.051c-1.001,0-2.009-0.331-2.995-0.983l-9.37-6.455    c-1.266-0.913-1.877-2.665-1.877-5.362c0-4.985,1.041-8.969,3.093-11.841c2.125-3.024,5.211-5.516,9.176-7.404    c-0.146-2.106-0.386-4.026-0.711-5.71c-2.411-12.559-4.582-24.168-6.451-34.506l-0.213-1.179l10.987,7.54l0.043,0.192    c2.688,12.033,4.669,22.312,5.893,30.562c5.867-1.232,12.96-1.754,21.149-1.554c0.479,0.011,0.962,0.036,1.44,0.077    c1.606-11.059,4.207-19.228,7.732-24.287l0.356-0.368l4.318-5.228c1.43-2.007,2.36-4.017,2.746-5.943l0.15-0.75l10.351,7.244    l-0.072,0.326c-0.416,1.873-1.51,3.915-3.25,6.07c-0.902,1.007-2.357,2.819-4.342,5.404c-2.99,4.093-5.344,11.281-6.99,21.358    c0.345,0.218,0.688,0.445,1.031,0.682l9.301,6.447c4.42,3.088,6.66,7.617,6.66,13.466c0,3.299-1.044,6.329-3.104,9.008    C410.781,111.037,408.073,112.415,404.825,112.415z M388.054,82.732c-0.046,0.473-0.089,0.949-0.132,1.43    c-0.098,1.085-0.147,2.689-0.147,4.768c0,7.808,1.693,12.93,5.033,15.223l9.303,6.452c0.814,0.544,1.705,0.811,2.715,0.811    c2.963,0,5.335-1.212,7.252-3.704c1.922-2.5,2.896-5.325,2.896-8.398c0-5.502-2.097-9.757-6.231-12.645l-9.299-6.446    c-0.211-0.146-0.422-0.287-0.634-0.426c-0.116,0.745-0.229,1.505-0.337,2.28c1.392,0.258,2.875,0.648,4.418,1.164l0.157,0.053    l0.095,0.136c2.145,3.072,3.231,6.449,3.231,10.036c0,6.014-2.746,9.959-8.161,11.726l-0.467,0.151l-0.161-0.463    c-1.307-3.761-1.663-8.738-1.058-14.797c0.243-2.505,0.52-4.917,0.822-7.177c-0.677-0.098-1.338-0.162-1.97-0.191    C392.85,82.651,390.381,82.658,388.054,82.732z M355.329,109.667l0.053,0.036c0.813,0.537,1.635,0.813,2.436,0.813    c5.181,0,7.808-6.746,7.808-20.051c0-1.255-0.02-2.408-0.058-3.442c-3.828,1.756-6.784,4.068-8.793,6.883    c-0.178,0.248-0.346,0.505-0.504,0.773c-0.432,2.327-1.06,4.316-1.865,5.916c-0.153,1.173-0.231,2.457-0.231,3.82    c0,2.521,0.485,4.15,1.444,4.846L355.329,109.667z M348.919,104.614l4.672,3.24c-0.279-0.916-0.417-2.059-0.417-3.439    c0-0.651,0.018-1.287,0.052-1.901c-1.063,1.393-2.477,2.102-4.202,2.102C348.989,104.615,348.953,104.615,348.919,104.614z     M398.337,83.068c-0.3,2.239-0.573,4.629-0.814,7.112c-0.565,5.659-0.279,10.331,0.851,13.897    c4.71-1.704,7.001-5.181,7.001-10.613c0-3.326-0.995-6.463-2.958-9.328C400.991,83.667,399.622,83.309,398.337,83.068z     M346.281,102.786c0.915,0.55,1.838,0.829,2.742,0.829c1.535,0,2.725-0.663,3.635-2.027c0.278-0.4,0.539-0.833,0.779-1.296    c0.323-2.337,0.956-4.342,1.88-5.964c0.469-2.602,0.706-5.718,0.706-9.264c0-1.585-0.038-3.101-0.113-4.516    c-3.632,1.791-6.465,4.11-8.426,6.903c-1.932,2.702-2.909,6.49-2.909,11.263c0,2.291,0.477,3.812,1.417,4.519L346.281,102.786z     M356.886,80.089c0.091,1.549,0.138,3.221,0.138,4.976c0,2.727-0.139,5.207-0.414,7.405c2.147-2.66,5.138-4.851,8.908-6.521    c-0.048-0.869-0.112-1.649-0.191-2.325c-0.204-1.875-0.463-3.905-0.77-6.047C361.713,78.232,359.137,79.076,356.886,80.089z     M366.499,85.523l0.001,0.008c5.334-2.163,12.272-3.43,20.644-3.767v-0.001c0.205-2.036,0.439-4.01,0.697-5.88    c-0.439-0.036-0.883-0.06-1.323-0.069c-8.148-0.202-15.18,0.319-20.981,1.545c0.313,2.181,0.576,4.247,0.783,6.151    c0.07,0.595,0.129,1.271,0.176,2.015L366.499,85.523z M391.952,81.672c1.129,0,2.285,0.014,3.464,0.043    c0.67,0.031,1.362,0.098,2.069,0.199c0.129-0.92,0.264-1.818,0.402-2.695c-2.91-1.743-5.951-2.828-9.052-3.23    c-0.252,1.827-0.481,3.753-0.684,5.74C389.385,81.69,390.66,81.672,391.952,81.672z M356.818,79.017l0.001,0.009    c2.249-0.981,4.798-1.802,7.594-2.442c-1.212-8.193-3.179-18.407-5.847-30.367l-8.686-5.96    c1.819,10.035,3.915,21.235,6.235,33.315c0.313,1.621,0.547,3.45,0.698,5.448L356.818,79.017z M388.977,74.999    c3.111,0.404,6.16,1.465,9.081,3.159l0.002-0.01l0.002,0.001c1.67-10.021,4.061-17.215,7.11-21.389    c2.007-2.615,3.479-4.446,4.381-5.452c1.524-1.89,2.522-3.682,2.956-5.316l-8.564-5.994c-0.483,1.836-1.411,3.723-2.763,5.62    l-4.704,5.625C393.102,56.103,390.561,64.114,388.977,74.999z"/>
	</g>
	<g>
		<path d="M451.774,46.215c1.599,5.7,2.399,11.201,2.399,16.5c0,4.8-0.802,8.352-2.402,10.65l-0.149,0.3    c-2.501,3.501-6.303,5.25-11.404,5.25c-1.502,0-2.853-0.194-4.053-0.586l-10.929-7.681c2.099,0.711,4.195,1.065,6.295,1.065    c4.997,0,8.645-1.599,10.943-4.8l-0.301,0.45c1.599-2.299,2.399-5.798,2.399-10.5c0-5.4-0.899-11.25-2.7-17.55L451.774,46.215z"/>
		<path d="M440.217,79.415c-1.551,0-2.966-0.205-4.208-0.61l-0.132-0.066l-13.771-9.678l3.289,1.114    c2.035,0.689,4.1,1.039,6.135,1.039c4.761,0,8.286-1.517,10.478-4.509c1.37-2.208,2.064-5.518,2.064-9.841    c0-5.331-0.902-11.189-2.681-17.413l-0.387-1.351l11.201,7.807l0.049,0.172c1.604,5.721,2.418,11.318,2.418,16.635    c0,4.882-0.839,8.562-2.492,10.937l-0.112,0.236C449.441,77.578,445.466,79.415,440.217,79.415z M436.39,77.876    c1.125,0.357,2.412,0.539,3.827,0.539c4.908,0,8.608-1.696,10.997-5.041l0.109-0.231c1.571-2.267,2.35-5.754,2.35-10.428    c0-5.173-0.785-10.62-2.333-16.192l-8.615-6.005c1.558,5.815,2.348,11.309,2.348,16.347c0,4.485-0.736,7.958-2.188,10.325    l0.006,0.003l-0.122,0.181c-0.057,0.089-0.12,0.184-0.185,0.276l-0.024-0.017c-2.401,3.041-6.109,4.582-11.028,4.582    c-1.232,0-2.474-0.121-3.713-0.362L436.39,77.876z"/>
	</g>
	<g>
		<path d="M452.224,75.314c0.799,0.9,1.249,2.851,1.35,5.851c-0.127-3.8-0.188-1.55-0.188,6.75c0,2.201-0.188,6.651-0.563,13.351    c-0.101,5.602-0.101,10.049,0,13.35c0.199,5.498,1.396,10.849,3.597,16.05c0.799-0.5,1.646-1.296,2.547-2.392l9.198,6.379    c-2.011,2.541-3.821,3.812-5.43,3.812c-0.807,0-1.559-0.251-2.262-0.75l-9.301-6.45c-2.2-1.5-4.103-5.1-5.699-10.8    c-1.402-4.897-2.152-8.851-2.25-11.851c-0.103-3.498-0.052-7.949,0.148-13.35c0.301-7.598,0.45-12.049,0.45-13.35    c0-7.5-0.899-12.3-2.7-14.4L452.224,75.314z"/>
		<path d="M462.735,138.964c-0.905,0-1.764-0.283-2.551-0.842l-9.297-6.447c-2.322-1.583-4.252-5.207-5.896-11.076    c-1.406-4.911-2.17-8.938-2.269-11.969c-0.102-3.476-0.052-7.979,0.148-13.385c0.299-7.54,0.45-12.025,0.45-13.331    c0-7.343-0.868-12.079-2.58-14.074l-2.597-3.028l14.453,10.17c0.689,0.776,1.13,2.15,1.345,4.196    c0.074,0.29,0.094,0.856,0.13,1.962c0.001,0.003,0.001,0.005,0.001,0.008l0,0l-0.162,0.005c-0.015,1.242-0.025,3.329-0.025,6.762    c0,2.22-0.185,6.596-0.564,13.379c-0.099,5.546-0.099,10.029,0.001,13.306c0.188,5.213,1.306,10.358,3.32,15.301    c0.61-0.469,1.26-1.12,1.937-1.944l0.293-0.356l10.015,6.945l-0.331,0.418C466.426,137.655,464.522,138.964,462.735,138.964z     M442.698,69.233c1.09,2.644,1.623,6.83,1.623,12.681c0,1.319-0.151,5.817-0.45,13.369c-0.2,5.383-0.25,9.863-0.148,13.315    c0.096,2.946,0.847,6.893,2.23,11.728c1.557,5.558,3.407,9.098,5.5,10.524l9.305,6.452c0.628,0.446,1.273,0.661,1.977,0.661    c1.355,0,2.937-1.079,4.702-3.208l-8.382-5.813c-0.823,0.955-1.62,1.676-2.37,2.146l-0.498,0.312l-0.229-0.541    c-2.212-5.229-3.435-10.688-3.636-16.226c-0.1-3.296-0.101-7.795,0-13.377c0.374-6.689,0.563-11.172,0.563-13.342    c0-6.597,0.038-8.126,0.074-8.513c-0.182-1.831-0.543-3.08-1.074-3.715L442.698,69.233z"/>
	</g>
	<g>
		<path d="M480.573,46.515c0,2.7,0.174,6.727,0.525,12.075c0.349,5.351,0.523,9.375,0.523,12.075c0,3.2-0.148,5.801-0.449,7.8    l-1.649,10.801c-0.802,5.2-1.2,9.6-1.2,13.199c0,3.202,0.298,5.901,0.894,8.1c2.682-0.588,4.565-1.569,5.657-2.945    c0.197-0.197,0.348-0.588,0.447-1.18l9.472,6.567c-0.498,1.388-1.721,2.529-3.665,3.421c-1.945,0.893-3.768,1.338-5.462,1.338    c-1.298,0-2.294-0.248-2.992-0.75l-9.301-6.451c-3.101-2.1-4.648-6.799-4.648-14.1c0-2.197,0.949-10.199,2.85-24    c0.3-2.197,0.45-4.8,0.45-7.8c0-2.799-0.176-6.949-0.524-12.45c-0.353-5.499-0.524-9.649-0.524-12.45L480.573,46.515z"/>
		<path d="M485.666,118.266c-1.42,0-2.494-0.276-3.284-0.844l-9.294-6.446c-3.226-2.185-4.863-7.067-4.863-14.511    c0-2.217,0.96-10.314,2.854-24.068c0.295-2.166,0.445-4.768,0.445-7.731c0-2.76-0.176-6.938-0.523-12.418    c-0.349-5.438-0.525-9.638-0.525-12.481v-0.963l10.598,7.453v0.26c0,2.698,0.177,6.75,0.524,12.042    c0.348,5.342,0.524,9.416,0.524,12.108c0,3.22-0.153,5.868-0.455,7.874l-1.649,10.802c-0.793,5.142-1.194,9.557-1.194,13.124    c0,2.918,0.254,5.439,0.756,7.502c2.305-0.568,3.953-1.461,4.903-2.658c0.082-0.087,0.232-0.281,0.346-0.952l0.131-0.776    l10.435,7.234l-0.13,0.361c-0.543,1.514-1.864,2.761-3.928,3.706C489.336,117.8,487.428,118.266,485.666,118.266z M471.482,40.732    c0.034,2.777,0.208,6.622,0.518,11.45c0.349,5.501,0.525,9.701,0.525,12.482c0,3.009-0.153,5.655-0.455,7.867    c-1.888,13.71-2.845,21.762-2.845,23.933c0,7.091,1.49,11.695,4.429,13.686l9.306,6.454c0.612,0.44,1.521,0.661,2.707,0.661    c1.617,0,3.385-0.435,5.253-1.292c1.639-0.751,2.731-1.688,3.258-2.786l-8.542-5.922c-0.106,0.309-0.24,0.54-0.407,0.707    c-1.122,1.42-3.121,2.47-5.903,3.08l-0.466,0.103l-0.124-0.46c-0.604-2.23-0.911-5-0.911-8.23c0-3.618,0.406-8.085,1.206-13.275    l1.649-10.8c0.294-1.956,0.443-4.555,0.443-7.725c0-2.671-0.176-6.723-0.522-12.042c-0.338-5.147-0.515-9.13-0.525-11.848    L471.482,40.732z"/>
	</g>
	<g>
		<path d="M518.523,78.615c-5.7,4.8-8.901,7.5-9.601,8.1c-4.199,3.803-6.899,6.803-8.101,9c-1.601,2.901-1.8,6.45-0.6,10.65    c3.998,3.3,9.949,4.949,17.85,4.949c12.1,0,21.998-4.698,29.7-14.1c0.799-0.999,1.2-2.349,1.2-4.05c0-2.601-1.252-6.601-3.75-12    c-2.902-6.3-4.552-10.25-4.95-11.85c-0.3-1.2-0.45-2.55-0.45-4.05c0-3.398,1.101-7.95,3.3-13.65c2.7-6.999,4.3-11.7,4.801-14.1    l5.851,10.2c-0.3,1.8-1.5,4.95-3.601,9.45c-2.001,4.102-3,7.35-3,9.75c0,1.9,1.599,8.001,4.801,18.3    c2.198,7.102,3.3,12.45,3.3,16.051c0,2.301-0.502,4.049-1.5,5.25c-8.201,9.899-18.45,14.85-30.75,14.85    c-10.401,0-17.201-2.749-20.4-8.25l-5.55-9.6c-2.501-4.299-3.75-8.149-3.75-11.551c0-1.999,0.499-3.849,1.5-5.55    c1.898-3.3,7.95-9.149,18.15-17.55L518.523,78.615z"/>
		<path d="M523.023,121.865c-10.544,0-17.553-2.859-20.833-8.499l-5.55-9.601c-2.533-4.353-3.817-8.324-3.817-11.801    c0-2.081,0.528-4.034,1.569-5.804c1.942-3.376,7.917-9.161,18.263-17.682l0.459-0.378l6.05,10.628l-0.318,0.269    c-5.698,4.798-8.898,7.497-9.598,8.097c-4.128,3.738-6.818,6.722-7.987,8.86c-1.508,2.733-1.709,6.139-0.6,10.123    c3.888,3.143,9.744,4.736,17.411,4.736c11.886,0,21.748-4.683,29.313-13.916c0.72-0.901,1.087-2.158,1.087-3.733    c0-2.511-1.246-6.478-3.704-11.79c-2.941-6.385-4.57-10.29-4.981-11.939c-0.309-1.235-0.465-2.638-0.465-4.17    c0-3.444,1.121-8.098,3.333-13.831c2.677-6.937,4.284-11.654,4.778-14.021l0.269-1.288l6.594,11.496l-0.029,0.176    c-0.311,1.862-1.501,4.996-3.641,9.58c-1.961,4.02-2.953,7.227-2.953,9.539c0,1.847,1.607,7.954,4.778,18.151    c2.204,7.122,3.322,12.572,3.322,16.199c0,2.405-0.544,4.279-1.615,5.569C545.895,116.809,535.42,121.865,523.023,121.865z     M512.832,69.629c-9.835,8.126-15.747,13.855-17.576,17.035c-0.952,1.618-1.434,3.4-1.434,5.301c0,3.298,1.239,7.1,3.683,11.3    l5.55,9.601c3.087,5.308,9.806,8,19.968,8c12.085,0,22.302-4.936,30.365-14.669c0.919-1.105,1.385-2.765,1.385-4.931    c0-3.526-1.103-8.877-3.277-15.903c-3.245-10.438-4.823-16.472-4.823-18.447c0-2.465,1.026-5.819,3.051-9.969    c2.001-4.288,3.188-7.363,3.525-9.14l-5.136-8.955c-0.712,2.653-2.229,6.995-4.524,12.943c-2.168,5.617-3.267,10.149-3.267,13.47    c0,1.451,0.146,2.772,0.436,3.929c0.39,1.566,2.045,5.523,4.919,11.762c2.554,5.521,3.796,9.515,3.796,12.209    c0,1.808-0.44,3.275-1.31,4.362c-7.769,9.481-17.891,14.287-30.091,14.287c-7.984,0-14.097-1.704-18.168-5.063l-0.12-0.099    l-0.042-0.149c-1.232-4.313-1.017-8.023,0.643-11.029c1.222-2.234,3.981-5.307,8.202-9.13c0.696-0.597,3.793-3.209,9.296-7.843    L512.832,69.629z"/>
	</g>
	<g>
		<path d="M535.564,94.548c-2.486,1.495-6.017,3.884-10.591,7.167l-5.581-9.806c2.386-1.493,5.916-3.882,10.589-7.167    L535.564,94.548z"/>
		<path d="M524.813,102.445l-6.093-10.706l0.406-0.254c2.378-1.488,5.933-3.895,10.567-7.152l0.449-0.316l6.097,10.708l-0.418,0.252    c-2.466,1.482-6.018,3.887-10.557,7.145L524.813,102.445z M520.063,92.077l5.07,8.908c4.1-2.935,7.378-5.155,9.756-6.612    l-5.07-8.905C525.641,88.398,522.364,90.619,520.063,92.077z"/>
	</g>
	<g>
		<path d="M580.32,19.065c-1.601-0.5-3.3-0.75-5.1-0.75c-7.8,0-13.95,3.3-18.45,9.9c-2.899,4.2-5.399,8.951-7.5,14.25l-9.3-6.6    c4.102-10.8,9.352-18,15.75-21.6c3.399-1.898,6.951-2.85,10.649-2.85c3.601,0,6.849,1,9.75,3l9.301,6.45    c5.498,3.802,9.248,9.851,11.25,18.15c1.298,5.4,1.949,13.05,1.949,22.95c0,15.301-0.899,30.701-2.699,46.2    c-1.103,9.201-4.103,13.8-9,13.8c-1.5,0-3.053-0.551-4.65-1.65l-9.3-6.447c-1.2-0.799-1.8-2.499-1.8-5.1    c0-4.199,1.802-11.147,5.406-20.846c1.5-3.999,3.104-7.146,4.806-9.447l0.448-0.601c3.108-3.792,7.724-9.429,13.844-16.915    c5.185-6.516,8.876-12.781,11.068-18.794l9.276,6.6c-2.2,5.801-5.95,12-11.25,18.6l-13.8,17.1c-2.201,2.7-4.9,9.102-8.101,19.2    c-1.5,4.701-2.25,8.301-2.25,10.8c3.199-1.199,5.148-5.349,5.851-12.449c0.199-2.101,0.499-5.851,0.899-11.25    c1.1-12.8,1.649-24.398,1.649-34.801C589.02,38.066,586.118,25.766,580.32,19.065z"/>
		<path d="M586.92,122.465c-1.598,0-3.258-0.585-4.934-1.738l-9.302-6.448c-1.334-0.889-2.015-2.744-2.015-5.511    c0-4.24,1.829-11.312,5.438-21.02c1.507-4.018,3.146-7.237,4.872-9.571l0.45-0.602l6.814-8.323    c0.182-4.607,0.273-9.077,0.273-13.288c0.002-17.593-2.852-29.86-8.483-36.464c-1.506-0.455-3.125-0.686-4.814-0.686    c-7.589,0-13.657,3.257-18.037,9.682c-2.865,4.15-5.37,8.911-7.448,14.152l-0.234,0.592l-10.135-7.192l0.137-0.362    c4.126-10.862,9.499-18.216,15.973-21.857c3.464-1.934,7.129-2.915,10.895-2.915c3.686,0,7.061,1.039,10.034,3.088l9.302,6.451    c5.576,3.856,9.429,10.062,11.451,18.444c1.01,4.203,1.636,9.823,1.864,16.721c3.219-4.67,5.656-9.248,7.252-13.625l0.225-0.617    l10.126,7.205l-0.137,0.361c-2.208,5.822-6.02,12.125-11.328,18.735l-6.271,7.771c-0.372,10.827-1.203,21.854-2.471,32.774    C595.284,117.674,592.089,122.465,586.92,122.465z M588.175,70.915l-6.393,7.858c-1.67,2.258-3.264,5.395-4.738,9.324    c-3.565,9.595-5.374,16.55-5.374,20.67c0,2.411,0.53,3.987,1.577,4.684l9.308,6.452c1.505,1.036,2.974,1.562,4.365,1.562    c4.58,0,7.441-4.495,8.504-13.359c1.213-10.444,2.024-20.988,2.416-31.359l-6.482,8.033c-1.046,1.283-2.232,3.479-3.528,6.527    c-0.38,5.109-0.67,8.728-0.862,10.756c-0.729,7.378-2.749,11.587-6.173,12.87l-0.676,0.254v-0.722    c0-2.539,0.765-6.224,2.273-10.952c1.603-5.056,3.101-9.242,4.453-12.444l0.024-0.34C587.465,83.8,587.904,77.144,588.175,70.915z     M586.595,94.382c-1.019,2.669-2.107,5.828-3.25,9.435c-1.324,4.149-2.063,7.458-2.202,9.853    c2.582-1.463,4.205-5.393,4.828-11.702C586.12,100.391,586.33,97.847,586.595,94.382z M589.231,69.627    c-0.237,5.888-0.626,12.173-1.158,18.719c0.894-1.84,1.733-3.245,2.509-4.196l7.318-9.068c0.146-4.361,0.22-8.773,0.22-13.116    c0-1.141-0.009-2.252-0.026-3.333c-0.649,0.875-1.328,1.759-2.027,2.639L589.231,69.627z M599.068,57.293    c0.034,1.497,0.052,3.054,0.052,4.671c0,3.915-0.06,7.886-0.179,11.825l5.439-6.739c5.132-6.391,8.843-12.479,11.033-18.103    l-8.43-5.998C605.226,47.568,602.566,52.389,599.068,57.293L599.068,57.293z M575.22,17.815c1.842,0,3.607,0.26,5.249,0.773    l0.136,0.042l0.093,0.108c5.854,6.766,8.822,19.291,8.82,37.227c0,3.82-0.075,7.852-0.225,12.005l5.994-7.328    c0.971-1.22,1.904-2.452,2.772-3.66c-0.187-7.442-0.817-13.448-1.876-17.851c-1.962-8.135-5.68-14.143-11.048-17.856l-9.302-6.45    c-2.802-1.931-5.986-2.911-9.465-2.911c-3.593,0-7.094,0.938-10.405,2.787c-6.191,3.483-11.368,10.541-15.389,20.979l8.466,6.009    c2.059-5.079,4.519-9.705,7.317-13.759C560.934,21.219,567.281,17.815,575.22,17.815z"/>
	</g>
	<g>
		<g>
			<rect x="332.375" y="40.815" width="90" height="2.25"/>
			<rect x="329.125" y="37.565" width="96.5" height="8.75"/>
		</g>
		<g>
			<rect x="421.923" y="40.815" width="69.149" height="2.25"/>
			<rect x="418.673" y="37.565" width="75.649" height="8.75"/>
		</g>
		<g>
			<rect x="488.372" y="40.815" width="83.551" height="2.25"/>
			<rect x="485.122" y="37.565" width="90.051" height="8.75"/>
		</g>
		<g>
			<rect x="570.12" y="40.815" width="34.649" height="2.25"/>
			<rect x="566.87" y="37.565" width="41.149" height="8.75"/>
		</g>
	</g>
</g>
</svg>